week7_2/simulation/qsim/ControlUnit.msim.vcd
$comment
	File created using the following command:
		vcd file ControlUnit.msim.vcd -direction
$end
$date
	Wed Oct 13 22:01:32 2021
$end
$version
	ModelSim Version 2020.1
$end
$timescale
	1ps
$end

$scope module ControlUnit_vlg_vec_tst $end
$var reg 1 ! chk $end
$var reg 1 " clock $end
$var reg 2 # cnt [1:0] $end
$var reg 1 $ reset $end
$var reg 1 % sharp $end
$var reg 1 & star $end
$var wire 1 ' ce $end
$var wire 1 ( rw $end

$scope module i1 $end
$var wire 1 ) gnd $end
$var wire 1 * vcc $end
$var wire 1 + unknown $end
$var tri1 1 , devclrn $end
$var tri1 1 - devpor $end
$var tri1 1 . devoe $end
$var wire 1 / clock~combout $end
$var wire 1 0 sharp~combout $end
$var wire 1 1 Equal0~0_combout $end
$var wire 1 2 reset~combout $end
$var wire 1 3 reg_fstate.state5~1_combout $end
$var wire 1 4 chk~combout $end
$var wire 1 5 star~combout $end
$var wire 1 6 Selector0~0_combout $end
$var wire 1 7 fstate.state1~regout $end
$var wire 1 8 reg_fstate.state2~0_combout $end
$var wire 1 9 fstate.state2~regout $end
$var wire 1 : fstate.state3~regout $end
$var wire 1 ; rw~0_combout $end
$var wire 1 < fstate.state4~regout $end
$var wire 1 = reg_fstate.state5~0_combout $end
$var wire 1 > fstate.state5~regout $end
$var wire 1 ? ce~0_combout $end
$var wire 1 @ cnt~combout [1] $end
$var wire 1 A cnt~combout [0] $end
$upscope $end
$upscope $end
$enddefinitions $end
#0
$dumpvars
0!
0"
b0 #
1$
0%
0&
0'
0(
0)
1*
x+
1,
1-
1.
0/
00
01
12
03
04
05
16
07
08
09
0:
0;
0<
0=
0>
0?
0A
0@
$end
#20000
1"
1/
#40000
0"
0/
#60000
1"
1/
#80000
1&
0"
15
0/
18
06
#100000
1"
1/
19
17
#120000
0"
0/
#140000
0&
1"
05
1/
#160000
1!
0"
14
0/
08
#180000
1"
1/
1:
09
1?
1;
1'
1(
#200000
0"
0/
#220000
0!
1"
04
1/
0:
19
0?
0;
18
0'
0(
#240000
b1 #
0"
1A
0/
#260000
1"
1/
#280000
0"
0/
#300000
b0 #
1"
0A
1/
#320000
b10 #
0"
1@
0/
#340000
1"
1/
#360000
0"
0/
#380000
b0 #
1"
0@
1/
#400000
b1 #
b11 #
0"
1A
1@
0/
11
#420000
1"
1/
#440000
0"
0/
#460000
b10 #
b0 #
1"
0A
0@
1/
01
#480000
0"
0/
#500000
1"
1/
#520000
1%
0"
10
0/
#540000
1"
1/
#560000
0"
0/
#580000
0%
1"
00
1/
#600000
0"
0/
#620000
1"
1/
#640000
0"
0/
#660000
1"
1/
#680000
b1 #
b11 #
0"
1A
1@
0/
11
#700000
1"
1/
#720000
0"
0/
#740000
b10 #
b0 #
1"
0A
0@
1/
01
#760000
0"
0/
#780000
1"
1/
#800000
0"
0/
#820000
1"
1/
#840000
0"
0/
#860000
1"
1/
#880000
0"
0/
#900000
1"
1/
#920000
0"
0/
#940000
1"
1/
#960000
0"
0/
#980000
1"
1/
