week2_1/simulation/qsim/hw1.msim.vcd
$comment
	File created using the following command:
		vcd file hw1.msim.vcd -direction
$end
$date
	Wed Sep 08 19:00:23 2021
$end
$version
	ModelSim Version 2020.1
$end
$timescale
	1ps
$end

$scope module hw1_vlg_vec_tst $end
$var reg 1 ! A $end
$var reg 1 " B $end
$var reg 1 # C $end
$var reg 1 $ D $end
$var wire 1 % F1 $end
$var wire 1 & F2 $end

$scope module i1 $end
$var wire 1 ' gnd $end
$var wire 1 ( vcc $end
$var wire 1 ) unknown $end
$var tri1 1 * devclrn $end
$var tri1 1 + devpor $end
$var tri1 1 , devoe $end
$var wire 1 - C~combout $end
$var wire 1 . B~combout $end
$var wire 1 / A~combout $end
$var wire 1 0 D~combout $end
$var wire 1 1 inst3~0_combout $end
$upscope $end
$upscope $end
$enddefinitions $end
#0
$dumpvars
0!
0"
0#
0$
0%
0&
0'
1(
x)
1*
1+
1,
0-
0.
0/
00
11
$end
#40000
1!
1$
1/
10
01
1&
1%
#100000
1#
1-
#160000
1"
1.
#240000
0#
0-
#280000
0!
0$
0/
00
11
0&
0%
#340000
0"
0.
#400000
1!
1$
1/
10
01
1&
1%
#460000
1"
1.
#500000
0!
0/
11
0&
0%
#600000
1#
0"
1-
0.
#680000
0$
00
#760000
0#
0-
