elevator_final/simulation/qsim/elevator.msim.vcd
$comment
	File created using the following command:
		vcd file elevator.msim.vcd -direction
$end
$date
	Thu Dec 23 00:14:24 2021
$end
$version
	ModelSim Version 2020.1
$end
$timescale
	1ps
$end

$scope module elevator_simul_vlg_vec_tst $end
$var reg 1 ! clk $end
$var reg 10 " key [9:0] $end
$var reg 1 # rst $end
$var reg 1 $ sharp $end
$var reg 1 % star $end
$var wire 1 & a $end
$var wire 1 ' arrived $end
$var wire 1 ( b $end
$var wire 1 ) c $end
$var wire 1 * d $end
$var wire 1 + e $end
$var wire 1 , f $end
$var wire 1 - g $end
$var wire 1 . green1 $end
$var wire 1 / green2 $end
$var wire 1 0 green3 $end
$var wire 1 1 green4 $end
$var wire 1 2 motor_a $end
$var wire 1 3 motor_aa $end
$var wire 1 4 motor_b $end
$var wire 1 5 motor_bb $end
$var wire 1 6 next [3] $end
$var wire 1 7 next [2] $end
$var wire 1 8 next [1] $end
$var wire 1 9 next [0] $end
$var wire 1 : red1 $end
$var wire 1 ; red2 $end
$var wire 1 < red3 $end
$var wire 1 = red4 $end

$scope module i1 $end
$var wire 1 > gnd $end
$var wire 1 ? vcc $end
$var wire 1 @ unknown $end
$var tri1 1 A devclrn $end
$var tri1 1 B devpor $end
$var tri1 1 C devoe $end
$var wire 1 D inst14|inst6|inst3~regout $end
$var wire 1 E inst14|inst4|inst3~regout $end
$var wire 1 F clk~combout $end
$var wire 1 G rst~combout $end
$var wire 1 H star~combout $end
$var wire 1 I inst14|inst9|inst6~4_combout $end
$var wire 1 J inst14|inst8~1_combout $end
$var wire 1 K inst14|inst8~0_combout $end
$var wire 1 L inst14|inst4|inst2~regout $end
$var wire 1 M inst14|inst4|inst $end
$var wire 1 N inst14|inst1|inst3~regout $end
$var wire 1 O sharp~combout $end
$var wire 1 P inst|inst15~regout $end
$var wire 1 Q inst|inst4|inst6 $end
$var wire 1 R inst|inst4|inst|D_b~regout $end
$var wire 1 S inst|inst4|inst|C_b~regout $end
$var wire 1 T inst|inst4|inst|B_b~regout $end
$var wire 1 U inst14|inst3~2 $end
$var wire 1 V inst14|inst3~3_combout $end
$var wire 1 W inst14|inst6|inst2~regout $end
$var wire 1 X inst14|inst6|inst $end
$var wire 1 Y inst2|inst|inst~0 $end
$var wire 1 Z inst8|inst5|inst~combout $end
$var wire 1 [ inst2|inst4|inst4 $end
$var wire 1 \ inst3~0 $end
$var wire 1 ] inst14|inst5|inst~regout $end
$var wire 1 ^ inst14|inst5|inst1~regout $end
$var wire 1 _ inst2|inst4|inst~combout $end
$var wire 1 ` inst3~1 $end
$var wire 1 a inst5|inst4|Selector3~1_combout $end
$var wire 1 b inst5|inst4|Selector3~0_combout $end
$var wire 1 c inst5|inst4|fstate.state4~regout $end
$var wire 1 d inst5|inst4|Selector8~0_combout $end
$var wire 1 e inst5|inst4|Selector8~1_combout $end
$var wire 1 f inst5|inst4|fstate.state5~regout $end
$var wire 1 g inst5|inst4|Selector4~0_combout $end
$var wire 1 h inst5|inst4|Selector5~1_combout $end
$var wire 1 i inst5|inst4|reg_fstate.state9~0_combout $end
$var wire 1 j inst5|inst4|fstate.state9~regout $end
$var wire 1 k inst5|inst4|Selector6~0_combout $end
$var wire 1 l inst5|inst4|Selector6~1_combout $end
$var wire 1 m inst5|inst4|fstate.state8~regout $end
$var wire 1 n inst5|inst4|Selector5~0_combout $end
$var wire 1 o inst5|inst4|fstate.state7~regout $end
$var wire 1 p inst5|inst4|Selector4~1_combout $end
$var wire 1 q inst5|inst4|fstate.state6~regout $end
$var wire 1 r inst5|inst4|WideOr9~0_combout $end
$var wire 1 s inst5|inst4|nextFloor[2]~0_combout $end
$var wire 1 t inst14|inst9|inst5~0_combout $end
$var wire 1 u inst14|inst1|inst1~regout $end
$var wire 1 v inst8|inst4|inst1 $end
$var wire 1 w inst14|inst3~0_combout $end
$var wire 1 x inst14|inst1|inst2~regout $end
$var wire 1 y inst4~0_combout $end
$var wire 1 z inst4~1 $end
$var wire 1 { inst5|inst4|reg_fstate~0_combout $end
$var wire 1 | inst5|inst4|always1~2_combout $end
$var wire 1 } inst5|inst4|Selector2~0_combout $end
$var wire 1 ~ inst5|inst4|Selector2~1_combout $end
$var wire 1 !! inst5|inst4|fstate.state3~regout $end
$var wire 1 "! inst5|inst4|WideOr10~0_combout $end
$var wire 1 #! inst5|inst4|nextFloor[1]~1_combout $end
$var wire 1 $! inst14|inst1|inst~regout $end
$var wire 1 %! inst14|inst2|inst~regout $end
$var wire 1 &! inst14|inst2|inst1~regout $end
$var wire 1 '! inst8|inst4|inst4 $end
$var wire 1 (! inst14|inst2|inst2~regout $end
$var wire 1 )! inst14|inst5|inst2~regout $end
$var wire 1 *! inst2|inst3|inst4~combout $end
$var wire 1 +! inst14|inst5|inst3~regout $end
$var wire 1 ,! inst14|inst2|inst3~regout $end
$var wire 1 -! inst2|inst|inst4~0 $end
$var wire 1 .! inst5|inst4|reg_fstate.state1~0_combout $end
$var wire 1 /! inst5|inst4|fstate.state1~regout $end
$var wire 1 0! inst5|inst4|Selector1~0_combout $end
$var wire 1 1! inst5|inst4|Selector1~1_combout $end
$var wire 1 2! inst5|inst4|fstate.state2~regout $end
$var wire 1 3! inst5|inst4|WideOr11~0_combout $end
$var wire 1 4! inst5|inst4|nextFloor[0]~2_combout $end
$var wire 1 5! inst14|inst3~1_combout $end
$var wire 1 6! inst7|inst2~regout $end
$var wire 1 7! inst7|inst3~regout $end
$var wire 1 8! inst7|inst~combout $end
$var wire 1 9! inst5|inst4|nextFloor[3]~3_combout $end
$var wire 1 :! inst19|inst21~combout $end
$var wire 1 ;! inst19|inst23~combout $end
$var wire 1 <! inst19|inst25~0_combout $end
$var wire 1 =! inst19|inst28~2_combout $end
$var wire 1 >! inst19|inst28~3_combout $end
$var wire 1 ?! inst19|inst29~0_combout $end
$var wire 1 @! inst19|inst32~0_combout $end
$var wire 1 A! inst19|inst32~1_combout $end
$var wire 1 B! inst19|inst35~0_combout $end
$var wire 1 C! inst20|inst51|inst1~regout $end
$var wire 1 D! inst20|inst51|inst~regout $end
$var wire 1 E! inst20|inst11~combout $end
$var wire 1 F! inst20|inst13~combout $end
$var wire 1 G! inst20|inst14~combout $end
$var wire 1 H! inst20|inst15~combout $end
$var wire 1 I! key~combout [9] $end
$var wire 1 J! key~combout [8] $end
$var wire 1 K! key~combout [7] $end
$var wire 1 L! key~combout [6] $end
$var wire 1 M! key~combout [5] $end
$var wire 1 N! key~combout [4] $end
$var wire 1 O! key~combout [3] $end
$var wire 1 P! key~combout [2] $end
$var wire 1 Q! key~combout [1] $end
$var wire 1 R! key~combout [0] $end
$upscope $end
$upscope $end
$enddefinitions $end
#0
$dumpvars
0!
b0 "
0#
0$
0%
0&
0'
1(
1)
0*
0+
0,
0-
1.
1/
10
11
12
03
04
05
19
08
07
06
0:
0;
0<
0=
0>
1?
x@
1A
1B
1C
0D
0E
0F
0G
0H
1I
1J
1K
0L
0M
0N
0O
0P
0Q
0R
0S
0T
1U
0V
0W
0X
0Y
1Z
1[
0\
0]
0^
0_
0`
0a
0b
0c
0d
0e
0f
0g
0h
0i
0j
0k
0l
0m
0n
0o
0p
0q
0r
0s
0t
0u
1v
1w
0x
0y
1z
1{
0|
0}
0~
0!!
0"!
0#!
0$!
0%!
0&!
1'!
0(!
0)!
1*!
0+!
0,!
0-!
1.!
0/!
00!
01!
02!
13!
14!
05!
06!
07!
08!
09!
0:!
1;!
1<!
0=!
0>!
0?!
1@!
0A!
0B!
0C!
0D!
1E!
0F!
0G!
0H!
0R!
0Q!
0P!
0O!
0N!
0M!
0L!
0K!
0J!
0I!
$end
#10000
1!
1F
1C!
1R
1F!
0E!
14
02
#20000
0!
0F
#30000
b10000000 "
1!
1K!
1F
1t
0I
0J
1D!
0C!
1S
0R
1G!
0F!
13
04
#40000
0!
0F
#50000
1!
1F
1C!
1R
1L
1H!
0G!
1M
15
03
#60000
0!
0F
#70000
1!
1F
0D!
0C!
1$!
1x
1u
1T
0S
0R
1E
0H!
1E!
1V
0M
05
12
#80000
0!
0F
#90000
b0 "
1!
0K!
1F
0t
1I
1J
1C!
1F!
0E!
14
02
#100000
0!
0F
#110000
1!
1F
1D!
0C!
0L
1G!
0F!
13
04
#120000
0!
0F
#130000
b1 "
1!
1R!
1F
1C!
0E
1H!
0G!
15
03
#140000
0!
0F
#150000
1!
1F
0D!
0C!
1W
0H!
1E!
1X
05
12
#160000
0!
0F
#170000
1!
1F
1C!
1%!
1(!
1&!
1D
1F!
0E!
15!
0v
1`
0[
0Z
0*!
0w
1\
0'!
1_
0z
0X
0F!
0{
1-!
05!
14
02
1=
1<
1;
1:
01
00
0/
0.
0.!
1|
1G!
04
0=
0<
0;
0:
11
10
1/
1.
13
#180000
0!
0F
#190000
1!
1F
1D!
0C!
12!
1/!
0G!
1F!
03!
1"!
1?!
1=!
0<!
04!
1Z
1#!
03
14
1>!
1:!
1B!
1+
0)
09
18
1*
1&
1-
#200000
b0 "
0!
0R!
0F
#210000
1!
1F
1C!
02!
1!!
0W
0F!
1E!
13!
0?!
1<!
14!
0Z
04
12
1'!
1v
0+
1)
19
#220000
0!
0F
#230000
1!
1F
0D!
0C!
0!!
1c
0D
1H!
0E!
0"!
03!
1r
1A!
0=!
0#!
04!
1Z
1s
15
02
0>!
0:!
0'!
1z
1w
1,
08
09
17
0z
0w
0*
0&
#240000
0!
0F
#250000
1!
1F
1C!
1f
0c
0H!
1G!
1g
13!
1=!
0;!
14!
0Z
05
13
1>!
1:!
0v
0(
19
1*
1&
#260000
0!
0F
#270000
1!
1F
1D!
0C!
1q
0f
0G!
1F!
03!
1"!
0g
1?!
04!
1Z
1#!
03
14
1+
09
18
#280000
0!
0F
#290000
1!
1F
1C!
0q
1o
0F!
1E!
13!
0B!
0A!
0?!
0=!
1;!
14!
0Z
04
12
0>!
1'!
1v
0-
0,
0+
1(
19
1z
1w
0*
15!
1{
0E!
0|
1h
1=
1<
1;
1:
01
00
0/
0.
02
#300000
0!
0F
#310000
1!
1F
0D!
0C!
1W
16!
1X
18!
0U
1Q
0V
1'
0T
#320000
0!
0F
#330000
1!
1F
1C!
1]
1)!
1^
1D
0W
17!
1[
0_
0X
08!
0Q
1U
1*!
0\
0'
0-!
0`
#340000
0!
0F
#350000
1!
1F
1D!
0C!
0D
1R
#360000
0!
0F
#370000
1$
1!
1O
1F
1P
1C!
1S
0R
#380000
0!
0F
#390000
1!
1F
0D!
0C!
1W
1R
1X
#400000
0!
0F
#410000
b100 "
0$
1!
1P!
0O
1F
0P
1C!
1D
1T
0S
0R
1V
0X
#420000
0!
0F
#430000
1!
1F
1D!
0C!
1L
1M
#440000
0!
0F
#450000
1!
1F
1C!
0$!
0x
1E
0M
#460000
0!
0F
#470000
1!
1F
0D!
0C!
#480000
0!
0F
#490000
1!
1F
1C!
#500000
b0 "
0!
0P!
0F
#510000
1!
1F
1D!
0C!
0L
#520000
0!
0F
#530000
1!
1F
1C!
0E
#540000
0!
0F
#550000
1!
1F
0D!
0C!
#560000
0!
0F
#570000
1!
1F
1C!
#580000
0!
0F
#590000
1!
1F
1D!
0C!
#600000
b1 "
0!
1R!
0F
#610000
1!
1F
1C!
#620000
0!
0F
#630000
1!
1F
0D!
0C!
#640000
0!
0F
#650000
b0 "
1!
0R!
1F
1C!
#660000
1%
0!
1H
0F
0U
1Q
0V
0T
#670000
1!
1F
1D!
0C!
0W
#680000
0!
0F
#690000
1!
1F
1C!
0D
#700000
0!
0F
#710000
1!
1F
0D!
0C!
#720000
0!
0F
#730000
1!
1F
1C!
#740000
0!
0F
#750000
1!
1F
1D!
0C!
#760000
0%
0!
0H
0F
1U
0Q
#770000
1!
1F
1C!
1R
#780000
0!
0F
#790000
1!
1F
0D!
0C!
1S
0R
#800000
0!
0F
#810000
1!
1F
1C!
1R
#820000
0!
0F
#830000
1!
1F
1D!
0C!
1T
0S
0R
1V
#840000
0!
0F
#850000
1!
1F
1C!
1W
1X
#860000
0!
0F
#870000
1!
1F
0D!
0C!
0%!
0(!
1D
05!
1`
1Z
0w
1\
0X
1E!
0{
0=
0<
0;
0:
11
10
1/
1.
1p
0h
12
#880000
0!
0F
#890000
1!
1F
1C!
1q
0o
0W
06!
1F!
0E!
03!
1e
0p
1B!
1A!
1?!
1=!
0;!
04!
0Z
14
02
1>!
1-
1,
1+
0(
09
1*
#900000
0!
0F
#910000
1!
1F
1D!
0C!
0q
1f
0D
07!
1G!
0F!
13!
0"!
0e
1b
0B!
0?!
14!
1Z
0#!
13
04
0'!
0v
1B!
0-
0+
19
08
1-
#920000
0!
0F
#930000
1!
1F
1C!
0f
1c
1H!
0G!
0b
03!
1}
0=!
1;!
04!
0Z
15
03
0>!
0:!
1(
09
0*
0&
#940000
0!
0F
#950000
1!
1F
0D!
0C!
1!!
0c
0H!
1E!
10!
1"!
13!
0}
0r
0A!
1=!
1#!
14!
1Z
0s
05
12
1>!
1:!
1'!
1v
0z
0,
18
19
07
1z
1w
1*
1&
#960000
0!
0F
#970000
1!
1F
1C!
12!
0!!
1F!
0E!
03!
1.!
00!
1?!
0<!
04!
0Z
14
02
15!
1{
1+
0)
09
0F!
11!
0.!
1=
1<
1;
1:
01
00
0/
0.
04
#980000
0!
0F
#990000
1!
1F
1D!
0C!
1W
16!
1X
18!
0U
1Q
0V
1'
0T
