week2_2/simulation/qsim/week2_2.msim.vcd
$comment
	File created using the following command:
		vcd file week2_2.msim.vcd -direction
$end
$date
	Wed Sep 08 20:22:06 2021
$end
$version
	ModelSim Version 2020.1
$end
$timescale
	1ps
$end

$scope module week2_2_vlg_vec_tst $end
$var reg 1 ! d0 $end
$var reg 1 " d1 $end
$var reg 1 # d2 $end
$var reg 1 $ d3 $end
$var reg 1 % d4 $end
$var reg 1 & d5 $end
$var reg 1 ' d6 $end
$var reg 1 ( d7 $end
$var reg 1 ) d8 $end
$var reg 1 * d9 $end
$var reg 1 + d10 $end
$var reg 1 , d11 $end
$var wire 1 - b0 $end
$var wire 1 . b1 $end
$var wire 1 / b2 $end
$var wire 1 0 b3 $end

$scope module i1 $end
$var wire 1 1 gnd $end
$var wire 1 2 vcc $end
$var wire 1 3 unknown $end
$var tri1 1 4 devclrn $end
$var tri1 1 5 devpor $end
$var tri1 1 6 devoe $end
$var wire 1 7 d9~combout $end
$var wire 1 8 d0~combout $end
$var wire 1 9 d11~combout $end
$var wire 1 : d10~combout $end
$var wire 1 ; d8~combout $end
$var wire 1 < inst8~0_combout $end
$var wire 1 = inst8~1_combout $end
$var wire 1 > d6~combout $end
$var wire 1 ? d4~combout $end
$var wire 1 @ inst9~0_combout $end
$var wire 1 A d5~combout $end
$var wire 1 B d7~combout $end
$var wire 1 C inst9~1_combout $end
$var wire 1 D d2~combout $end
$var wire 1 E d3~combout $end
$var wire 1 F inst10~0_combout $end
$var wire 1 G inst10~1_combout $end
$var wire 1 H inst11~0_combout $end
$var wire 1 I d1~combout $end
$var wire 1 J inst11~1_combout $end
$upscope $end
$upscope $end
$enddefinitions $end
#0
$dumpvars
1!
0"
0#
0$
0%
0&
0'
0(
0)
0*
0+
0,
0-
0.
0/
00
01
12
x3
14
15
16
07
18
09
0:
0;
0<
0=
0>
0?
0@
0A
0B
0C
0D
0E
0F
0G
0H
0I
0J
$end
#60000
0!
1"
08
1I
1J
1-
#140000
1#
0"
1D
0I
1G
0J
1.
0-
#240000
0#
0D
0G
0.
#260000
1$
1E
1H
1F
1J
1G
1-
1.
#340000
1%
0$
1?
0E
1@
0H
0F
1C
0J
0G
1/
0-
0.
#420000
1&
0%
1A
0?
1J
0@
1-
#500000
1'
0&
1>
0A
1G
1@
0J
0C
1C
1.
0-
0/
1/
#600000
1(
0'
1B
0>
1H
1F
0G
0@
1J
1G
0.
1-
1.
#660000
1)
0(
1;
0B
1<
0H
0F
0C
1=
0J
0G
0/
10
0-
0.
#740000
1*
0)
17
0;
1H
0<
1J
1-
#820000
1+
0*
1:
07
1F
1<
0H
0=
1G
1=
0J
00
1.
10
0-
#900000
1,
0+
19
0:
1H
0<
1J
1-
