week4_4_to_6/simulation/qsim/week4-1.msim.vcd
$comment
	File created using the following command:
		vcd file week4-1.msim.vcd -direction
$end
$date
	Wed Sep 29 23:12:40 2021
$end
$version
	ModelSim Version 2020.1
$end
$timescale
	1ps
$end

$scope module week4_1_dff_vlg_vec_tst $end
$var reg 1 ! CLK $end
$var reg 1 " D $end
$var reg 1 # RST_N $end
$var wire 1 $ Q $end

$scope module i1 $end
$var wire 1 % gnd $end
$var wire 1 & vcc $end
$var wire 1 ' unknown $end
$var tri1 1 ( devclrn $end
$var tri1 1 ) devpor $end
$var tri1 1 * devoe $end
$var wire 1 + CLK~combout $end
$var wire 1 , D~combout $end
$var wire 1 - RST_N~combout $end
$var wire 1 . inst~regout $end
$upscope $end
$upscope $end
$enddefinitions $end
#0
$dumpvars
0!
0"
1#
0$
0%
1&
x'
1(
1)
1*
0+
0,
1-
0.
$end
#20000
1!
1+
#40000
0!
0+
#60000
1!
1+
#80000
0!
0+
#100000
1!
1+
#120000
0!
0+
#140000
1!
1+
#160000
0!
0+
#180000
1!
1+
#200000
1"
0!
1,
0+
#220000
1!
1+
1.
1$
#240000
0!
0+
#260000
1!
1+
#280000
0!
0+
#300000
1!
1+
#320000
0!
0+
#340000
1!
1+
#360000
0!
0+
#380000
1!
1+
#400000
0!
0+
#420000
0"
1!
0,
1+
0.
0$
#440000
0!
0+
#460000
1!
1+
#480000
0!
0+
#500000
1!
1+
#520000
1"
0!
1,
0+
#540000
1!
1+
1.
1$
#560000
0!
0+
#580000
1!
1+
#600000
0!
0+
#620000
1!
1+
#640000
0!
0+
#660000
1!
1+
#680000
0!
0+
#700000
0"
1!
0,
1+
0.
0$
#720000
0!
0+
#740000
1!
1+
#760000
0!
0+
#780000
1!
1+
#800000
0!
0+
#820000
1!
1+
#840000
0!
0+
#860000
1!
1+
#880000
0!
0+
#900000
1!
1+
#920000
0!
0+
#940000
1!
1+
#960000
0!
0+
#980000
1!
1+
